<?xml version="1.0" encoding="utf-8"?>
<!-- Generator: Adobe Illustrator 19.1.0, SVG Export Plug-In . SVG Version: 6.00 Build 0)  -->
<svg version="1.1" id="Capa_1" xmlns="http://www.w3.org/2000/svg" xmlns:xlink="http://www.w3.org/1999/xlink" x="0px" y="0px"
	 viewBox="-124 125.8 50.2 50.2" style="enable-background:new -124 125.8 50.2 50.2;" xml:space="preserve" width="50.244px" height="50.244px">
<style type="text/css">
	.st0{fill:#a9a9a9;}
</style>
<g>
	<path class="st0" d="M-95.3,157c0-0.4-0.3-0.6-0.7-0.5c0,0-1.7,0.4-3,0.4c-1.3,0-3-0.4-3-0.4c-0.4-0.1-0.7,0.1-0.7,0.5v2
		c0,0.4,0.3,0.7,0.7,0.7h5.9c0.4,0,0.7-0.3,0.7-0.7L-95.3,157L-95.3,157z"/>
	<path class="st0" d="M-88.5,131.4c0-0.8-0.6-1.4-1.4-1.4h-18.1c-0.8,0-1.4,0.6-1.4,1.4v11.3c0,3.5,1.1,6.8,3,9.1
		c1.9,2.3,4.6,3.6,7.4,3.6c2.9,0,5.5-1.3,7.4-3.6c1.9-2.3,3-5.5,3-9.1V131.4z"/>
	<path class="st0" d="M-110.6,145.5c-1.9-0.7-2.7-2.3-2.7-5v-6.1h2.5v-2.7h-3.9c-0.8,0-1.4,0.6-1.4,1.4v7.5c0,4.6,2.2,7.3,6.2,8
		C-110.2,147.5-110.4,146.5-110.6,145.5L-110.6,145.5z"/>
	<path class="st0" d="M-107.9,161.7c-0.8,0-1.4,0.6-1.4,1.4v6.8c0,0.8,0.6,1.4,1.4,1.4h18.1c0.8,0,1.4-0.6,1.4-1.4V163
		c0-0.8-0.6-1.4-1.4-1.4C-89.9,161.7-107.9,161.7-107.9,161.7z"/>
	<path class="st0" d="M-83.1,131.6H-87v2.7h2.5v6.1c0,2.7-0.9,4.3-2.7,5c-0.2,1-0.4,2-0.7,3c4-0.6,6.2-3.4,6.2-8V133
		C-81.7,132.2-82.3,131.6-83.1,131.6L-83.1,131.6z"/>
</g>
</svg>
