<?xml version="1.0" encoding="iso-8859-1"?>
<!-- Generator: Adobe Illustrator 19.1.0, SVG Export Plug-In . SVG Version: 6.00 Build 0)  -->
<svg version="1.1" id="Layer_1" xmlns="http://www.w3.org/2000/svg" xmlns:xlink="http://www.w3.org/1999/xlink" x="0px" y="0px"
	 viewBox="-49 141 512 512" style="enable-background:new -49 141 512 512;" xml:space="preserve" width="50.244px" height="50.244px">
<path fill="#a9a9a9" d="M463,190.778H-49v355.556h323.604c-4.696-7.078-7.516-16.186-11.728-23.465c-6.053-10.46-17.476-20.469-17.476-33.424
	s11.423-22.963,17.476-33.424c6.244-10.792,9.412-25.621,20.204-31.865c10.462-6.052,24.744-1.556,37.697-1.556
	c12.954,0,27.236-4.496,37.697,1.556c10.792,6.245,13.961,21.073,20.204,31.865c6.053,10.46,17.476,20.469,17.476,33.424
	s-11.423,22.963-17.476,33.424c-4.211,7.279-7.031,16.387-11.728,23.465H463V190.778z M121.667,261.889h170.667v42.667H121.667
	V261.889z M207,475.222H36.333v-42.667H207V475.222z M377.667,389.889H36.333v-42.667h341.333V389.889z"/>
<polygon fill="#a9a9a9" points="292.333,557.612 292.333,603.222 320.778,589 349.222,603.222 349.222,557.612 "/>
<circle fill="#a9a9a9" cx="320.778" cy="489.444" r="42.667"/>
</svg>
