<?xml version="1.0" encoding="utf-8"?>
<!-- Generator: Adobe Illustrator 19.1.0, SVG Export Plug-In . SVG Version: 6.00 Build 0)  -->
<svg version="1.1" id="Capa_1" xmlns="http://www.w3.org/2000/svg" xmlns:xlink="http://www.w3.org/1999/xlink" x="0px" y="0px"
	 viewBox="1874 -130 561 561" style="enable-background:new 1874 -130 561 561;" xml:space="preserve" width="50.244px" height="50.244px">
<style type="text/css">
	.st0{fill:#BDBDBD;}
	.st1{fill:#5FB6FF;}
</style>
<path class="st1" d="M2250.4,111.3c44.8,0,79.1-34.3,79.1-79.1S2295.2-47,2250.4-47c-44.8,0-79.1,34.3-79.1,79.1
	S2205.5,111.3,2250.4,111.3z M2060,111.3c44.8,0,79.1-34.3,79.1-79.1S2104.9-47,2060-47c-44.8,0-79.1,34.3-79.1,79.1
	S2015.2,111.3,2060,111.3z M2060,164c-60.7,0-184.6,31.7-184.6,92.3v65.9h369.3v-65.9C2244.7,195.7,2120.7,164,2060,164z
	 M2250.4,164c-7.9,0-15.8,0-26.4,2.6c31.7,21.1,52.8,52.8,52.8,89.7v65.9H2435v-65.9C2435,195.7,2311,164,2250.4,164z"/>
</svg>
