<?xml version="1.0" encoding="utf-8"?>
<!-- Generator: Adobe Illustrator 19.1.0, SVG Export Plug-In . SVG Version: 6.00 Build 0)  -->
<svg version="1.1" id="Layer_1" xmlns="http://www.w3.org/2000/svg" xmlns:xlink="http://www.w3.org/1999/xlink" x="0px" y="0px"
	 viewBox="-124 132.1 49.9 36.9" style="enable-background:new -124 132.1 49.9 36.9;" xml:space="preserve">
<style type="text/css">
	.st0{fill:#5FB6FF;}
</style>
<path class="st0" d="M-91.7,132.6c-0.3-0.3-0.7-0.5-1.1-0.5h-29.6c-0.4,0-0.8,0.2-1.1,0.5c-0.3,0.3-0.5,0.7-0.5,1.1v3.3
	c0,0.4,0.2,0.8,0.5,1.1s0.7,0.5,1.1,0.5h29.6c0.4,0,0.8-0.2,1.1-0.5c0.3-0.3,0.5-0.7,0.5-1.1v-3.3
	C-91.3,133.3-91.4,132.9-91.7,132.6L-91.7,132.6z"/>
<path class="st0" d="M-79,143.2c-0.4-0.3-1-0.5-1.5-0.5h-41.3c-0.6,0-1.1,0.2-1.5,0.5s-0.7,0.7-0.7,1.1v3.3c0,0.4,0.3,0.8,0.7,1.1
	s1,0.5,1.5,0.5h41.3c0.6,0,1.1-0.2,1.5-0.5s0.7-0.7,0.7-1.1v-3.3C-78.4,143.9-78.5,143.5-79,143.2L-79,143.2z"/>
<path class="st0" d="M-91.5,153.1c-0.3-0.3-0.7-0.5-1.1-0.5h-29.8c-0.4,0-0.8,0.2-1.1,0.5c-0.3,0.3-0.5,0.7-0.5,1.1v3.3
	c0,0.4,0.2,0.8,0.5,1.1s0.7,0.5,1.1,0.5h29.8c0.4,0,0.8-0.2,1.1-0.5c0.3-0.3,0.5-0.7,0.5-1.1v-3.3
	C-91.1,153.8-91.2,153.4-91.5,153.1L-91.5,153.1z"/>
<path class="st0" d="M-79,163c-0.4-0.3-1-0.5-1.5-0.5h-41.3c-0.6,0-1.1,0.2-1.5,0.5s-0.7,0.7-0.7,1.1v3.3c0,0.4,0.3,0.8,0.7,1.1
	c0.4,0.3,1,0.5,1.5,0.5h41.3c0.6,0,1.1-0.2,1.5-0.5s0.7-0.7,0.7-1.1v-3.3C-78.4,163.7-78.5,163.3-79,163L-79,163z"/>
</svg>
