<?xml version="1.0" encoding="utf-8"?>
<!-- Generator: Adobe Illustrator 19.1.0, SVG Export Plug-In . SVG Version: 6.00 Build 0)  -->
<svg version="1.1" id="Capa_1" xmlns="http://www.w3.org/2000/svg" xmlns:xlink="http://www.w3.org/1999/xlink" x="0px" y="0px"
	 viewBox="1293 -130 561 561" style="enable-background:new 1293 -130 561 561;" xml:space="preserve" width="50.244px" height="50.244px">



<style type="text/css">
	.st0{fill:#a9a9a9;}
	.st1{fill:#5FB6FF;}
</style>
<path class="st0" d="M1669.4,111.3c44.8,0,79.1-34.3,79.1-79.1S1714.2-47,1669.4-47c-44.8,0-79.1,34.3-79.1,79.1
	S1624.5,111.3,1669.4,111.3z M1479,111.3c44.8,0,79.1-34.3,79.1-79.1S1523.9-47,1479-47s-79.1,34.3-79.1,79.1
	S1434.2,111.3,1479,111.3z M1479,164c-60.7,0-184.6,31.7-184.6,92.3v65.9h369.3v-65.9C1663.7,195.7,1539.7,164,1479,164z
	 M1669.4,164c-7.9,0-15.8,0-26.4,2.6c31.7,21.1,52.8,52.8,52.8,89.7v65.9H1854v-65.9C1854,195.7,1730,164,1669.4,164z"/>
</svg>
