<?xml version="1.0" encoding="utf-8"?>
<!-- Generator: Adobe Illustrator 19.1.0, SVG Export Plug-In . SVG Version: 6.00 Build 0)  -->
<svg version="1.1" id="Capa_1" xmlns="http://www.w3.org/2000/svg" xmlns:xlink="http://www.w3.org/1999/xlink" x="0px" y="0px"
	 viewBox="-124 125.8 50.2 50.2" style="enable-background:new -124 125.8 50.2 50.2;" xml:space="preserve" width="50.244px" height="50.244px">

<style type="text/css">
	.st0{fill:#5FB6FF;}
	.st1{fill:none;stroke:#5FB6FF;stroke-width:2;stroke-linecap:round;stroke-miterlimit:10;}
</style>
<path class="st0" d="M-98.6,148.1L-98.6,148.1c-0.9,0-1.6-0.7-1.6-1.6v-4.9c0-0.9,0.7-1.6,1.6-1.6l0,0c0.9,0,1.6,0.7,1.6,1.6v4.9
	C-97.1,147.3-97.7,148.1-98.6,148.1z"/>
<path class="st1" d="M-111.6,130.9c0,0,1.2,4.8,7.2,3.5c0,0,5.8-1.4,5.8,3.8"/>
<path class="st0" d="M-94.9,138.7v9.9c0,1.7-1.2,3.2-2.8,3.7v5.1c0,0.5-0.4,0.9-1,0.9c-0.5,0-1-0.4-1-0.9v-5.1
	c-1.6-0.4-2.8-1.8-2.8-3.7v-9.9c-4.9,1.2-8.6,5.8-8.6,11.1V160c0,6.3,5.2,11.5,11.5,11.5h1.8c6.3,0,11.5-5.2,11.5-11.5v-10.2
	C-86.2,144.5-89.9,140-94.9,138.7z"/>
</svg>
