<?xml version="1.0" encoding="UTF-8" standalone="no"?>
<svg width="41px" height="52px" viewBox="0 0 41 52" version="1.1" xmlns="http://www.w3.org/2000/svg" xmlns:xlink="http://www.w3.org/1999/xlink">
    <!-- Generator: Sketch 3.7.2 (28276) - http://www.bohemiancoding.com/sketch -->
    <title>Page 1</title>
    <desc>Created with Sketch.</desc>
    <defs></defs>
    <g id="Web" stroke="none" stroke-width="1" fill="none" fill-rule="evenodd">
        <g id="Home" transform="translate(-365.000000, -3515.000000)">
            <g id="Functionalities" transform="translate(276.000000, 3068.000000)">
                <g id="Group-25" transform="translate(0.000000, 242.000000)">
                    <g id="Group-42" transform="translate(0.000000, 206.000000)">
                        <g id="Page-1" transform="translate(90.000000, 0.000000)">
                            <polygon id="Fill-1" fill="#FFFFFF" points="35.0601245 46.0713492 0.0397163265 46.0713492 0.0397163265 0.0396031746 28.6927776 0.0396031746 35.0601245 6.38880952"></polygon>
                            <polyline id="Stroke-2" stroke="#4D5152" stroke-width="1.58730159" points="35.0601245 27.817381 35.0601245 46.0713492 16.754002 46.0713492"></polyline>
                            <polyline id="Stroke-3" stroke="#4D5152" stroke-width="1.58730159" points="28.6927776 0.0396031746 28.6927776 6.38880952 35.0601245 6.38880952"></polyline>
                            <polyline id="Stroke-4" stroke="#4D5152" stroke-width="1.58730159" points="4.81522653 46.0713492 0.0397163265 46.0713492 0.0397163265 0.0396031746 28.6927776 0.0396031746 35.0601245 6.38880952 35.0601245 15.1189683"></polyline>
                            <polygon id="Fill-5" fill="#EAF8FF" points="4.01930816 7.18246032 24.7131857 7.18246032 24.7131857 0.833253968 4.01930816 0.833253968"></polygon>
                            <polygon id="Fill-6" fill="#AAE1FF" points="18.3458388 41.3094444 12.7744102 46.865 8.79481837 42.896746 14.3662469 37.3411905"></polygon>
                            <polygon id="Fill-7" fill="#AAE1FF" points="22.3254306 37.3411905 18.3458388 41.3094444 14.3662469 37.3411905 18.3458388 33.3729365"></polygon>
                            <polygon id="Fill-8" fill="#FFFFFF" points="38.243798 21.4681746 35.0601245 24.6427778 31.0805327 20.6745238 34.2642061 17.4999206"></polygon>
                            <polygon id="Fill-9" fill="#FFFFFF" points="12.7744102 46.865 6.40706327 49.2459524 8.79481837 42.896746"></polygon>
                            <polygon id="Fill-10" fill="#AAE1FF" points="35.0601245 24.6427778 22.3254306 37.3411905 18.3458388 33.3729365 31.0805327 20.6745238"></polygon>
                            <path d="M12.7744102,46.865 L8.79481837,42.896746" id="Stroke-11" stroke="#4D5152" stroke-width="1.58730159"></path>
                            <polyline id="Stroke-12" stroke="#4D5152" stroke-width="1.58730159" points="20.7335939 26.2300794 28.6927776 18.2935714 35.0601245 24.6427778"></polyline>
                            <polygon id="Stroke-13" stroke="#4D5152" stroke-width="1.58730159" points="8.79481837 42.896746 34.2642061 17.4999206 38.243798 21.4681746 12.7744102 46.865 6.40706327 49.2459524"></polygon>
                            <path d="M14.3662469,37.3411905 L18.3458388,41.3094444" id="Stroke-14" stroke="#4D5152" stroke-width="1.58730159"></path>
                            <path d="M18.3458388,33.3729365 L22.3254306,37.3411905" id="Stroke-15" stroke="#4D5152" stroke-width="1.58730159"></path>
                            <path d="M4.01930816,9.5634127 L24.7131857,9.5634127" id="Stroke-16" stroke="#4D5152" stroke-width="1.58730159"></path>
                            <path d="M4.01930816,12.7380159 L24.7131857,12.7380159" id="Stroke-17" stroke="#4D5152" stroke-width="1.58730159"></path>
                            <path d="M4.01930816,15.912619 L13.5703286,15.912619" id="Stroke-18" stroke="#4D5152" stroke-width="1.58730159"></path>
                        </g>
                    </g>
                </g>
            </g>
        </g>
    </g>
</svg>