<?xml version="1.0" encoding="UTF-8" standalone="no"?>
<svg width="62px" height="62px" viewBox="0 0 62 62" version="1.1" xmlns="http://www.w3.org/2000/svg" xmlns:xlink="http://www.w3.org/1999/xlink">
    <!-- Generator: Sketch 3.7.2 (28276) - http://www.bohemiancoding.com/sketch -->
    <title>Page 1</title>
    <desc>Created with Sketch.</desc>
    <defs></defs>
    <g id="Web" stroke="none" stroke-width="1" fill="none" fill-rule="evenodd">
        <g id="Home" transform="translate(-372.000000, -2568.000000)">
            <g id="Steps" transform="translate(250.000000, 2282.000000)">
                <g id="Group-45" transform="translate(0.000000, 220.000000)">
                    <g id="Group-22">
                        <g id="Group-43" transform="translate(56.000000, 0.000000)">
                            <g id="Page-1" transform="translate(67.000000, 67.000000)">
                                <path d="M60,30 C60,46.5682759 46.5682759,60 30,60 C13.4317241,60 0,46.5682759 0,30 C0,13.4317241 13.4317241,0 30,0 C46.5682759,0 60,13.4317241 60,30" id="Fill-1" fill="#FFFFFF"></path>
                                <path d="M60,30 C60,46.5682759 46.5682759,60 30,60 C13.4317241,60 0,46.5682759 0,30 C0,13.4317241 13.4317241,0 30,0 C46.5682759,0 60,13.4317241 60,30 L60,30 Z" id="Stroke-2" stroke="#4D5152" stroke-width="1.81818182" stroke-linejoin="round"></path>
                                <path d="M30,52.7272727 C17.4483471,52.7272727 7.27272727,42.5516529 7.27272727,30 C7.27272727,17.4483471 17.4483471,7.27272727 30,7.27272727 C42.5506198,7.27272727 52.7272727,17.4483471 52.7272727,30 C52.7272727,42.5516529 42.5506198,52.7272727 30,52.7272727 Z" id="Fill-3" fill="#EAF8FF"></path>
                                <path d="M38.3116883,44.5454545 L48.7012987,47.6363636 L51.8181818,50.7272727 C46.3314286,56.440303 38.5838961,60 30,60 C21.4244156,60 13.6997403,56.4001212 8.18181818,50.7272727 L11.2987013,47.6363636 L21.6883117,44.5454545" id="Fill-4" fill="#AAE1FF"></path>
                                <polygon id="Fill-5" fill="#FFFFFF" points="34.0909091 48.1818182 30 46.1983471 25.9090909 48.1818182 21.8181818 44.214876 23.8636364 41.2396694 24.8863636 41.2396694 24.8863636 37.2727273 30 38.2644628 35.1136364 37.2727273 35.1136364 41.2396694 36.1363636 41.2396694 38.1818182 44.214876"></polygon>
                                <polygon id="Stroke-6" stroke="#4D5152" stroke-width="1.81818182" points="34.0909091 48.1818182 30 46.1038961 25.9090909 48.1818182 21.8181818 44.025974 23.8636364 40.9090909 30 41.9480519 36.1363636 40.9090909 38.1818182 44.025974"></polygon>
                                <path d="M35.4545455,37.2727273 L35.4545455,41.8181818" id="Stroke-7" stroke="#4D5152" stroke-width="1.81818182"></path>
                                <path d="M24.5454545,41.8181818 L24.5454545,37.2727273" id="Stroke-8" stroke="#4D5152" stroke-width="1.81818182"></path>
                                <path d="M29.0909091,51.8181818 L30.9090909,51.8181818" id="Stroke-9" stroke="#4D5152" stroke-width="1.81818182"></path>
                                <path d="M29.0909091,55.4545455 L30.9090909,55.4545455" id="Stroke-10" stroke="#4D5152" stroke-width="1.81818182"></path>
                                <path d="M39.0909091,23.8636364 L39.0909091,27.9545455 C38.0808081,35.1136364 35.0505051,37.1590909 35.0505051,37.1590909 C33.030303,38.1818182 30,38.1818182 30,38.1818182 C30,38.1818182 26.969697,38.1818182 24.9494949,37.1590909 C24.9494949,37.1590909 21.9191919,35.1136364 20.9090909,27.9545455 L20.9090909,23.8636364 L24.9494949,21.8181818 L35.0505051,25.9090909 L39.0909091,23.8636364 Z" id="Fill-11" fill="#FFFFFF"></path>
                                <path d="M20.9090909,23.4710744 C20.9090909,17.446281 23.8636364,14.5454545 30,14.5454545 C36.1363636,14.5454545 39.0909091,17.446281 39.0909091,23.4710744 L35.0505051,25.4545455 L30,23.4710744 L24.9494949,21.4876033 L20.9090909,23.4710744 Z" id="Fill-12" fill="#B0E3FF"></path>
                                <path d="M39.0909091,23.6363636 L39.0909091,27.7922078 C38.0808081,35.0649351 35.0505051,37.1428571 35.0505051,37.1428571 C33.030303,38.1818182 30,38.1818182 30,38.1818182 C30,38.1818182 26.969697,38.1818182 24.9494949,37.1428571 C24.9494949,37.1428571 21.9191919,35.0649351 20.9090909,27.7922078 L20.9090909,23.6363636" id="Stroke-13" stroke="#4D5152" stroke-width="1.81818182"></path>
                                <path d="M20.9090909,23.6363636 C20.9090909,17.5 23.8636364,14.5454545 30,14.5454545 C36.1363636,14.5454545 39.0909091,17.5 39.0909091,23.6363636" id="Stroke-14" stroke="#4D5152" stroke-width="1.81818182"></path>
                                <polyline id="Stroke-15" stroke="#4D5152" stroke-width="1.81818182" points="20.9090909 24.0909091 24.9494949 21.8181818 30 24.0909091 35.0505051 26.3636364 39.0909091 24.0909091"></polyline>
                                <path d="M38.3116883,44.5454545 L48.7012987,47.6363636 L51.8181818,50.7272727 C46.3314286,56.440303 38.5838961,60 30,60 C21.4244156,60 13.6997403,56.4001212 8.18181818,50.7272727 L11.2987013,47.6363636 L21.6883117,44.5454545" id="Stroke-16" stroke="#4D5152" stroke-width="1.81818182" stroke-linejoin="round"></path>
                            </g>
                        </g>
                    </g>
                </g>
            </g>
        </g>
    </g>
</svg>